Problem Set #3
…
pct_other

Lastly, sort by the number of students per state-type combinaiton in descending order, and answer the following question.

In one or two sentences, what is something you find interesting about these results?

ANSWER: California and Texas have the highest number of students by school type. There is also a trend of public schools being much more popular across the country.

df_school_all %>%
  group_by(state_code, school_type) %>%
  summarise(n_total_students = sum(total_students))
#> `summarise()` has grouped output by 'state_code'. You can override using the
#> `.groups` argument.
#> # A tibble: 102 × 3
#> # Groups:   state_code [51]
#>    state_code school_type n_total_students
#>    <chr>      <chr>                  <dbl>
#>  1 AK         private                 2003
#>  2 AK         public                 39861
#>  3 AL         private                39966
#>  4 AL         public                243004
#>  5 AR         private                13540
#>  6 AR         public                113878
#>  7 AZ         private                16057
#>  8 AZ         public                330197
#>  9 CA         private               169349
#> 10 CA         public               1865591
#> # ℹ 92 more rows
…
  group_by(state_code, school_type, race) %>%
  mutate(n_race_state = sum(n_student_race)) %>%
  summarise(pct_race_state = n_race_state/total_students_state) %>% 
  summarise(pct_race_state = mean(pct_race_state)*100)
#> Warning: Returning more (or less) than 1 row per `summarise()` group was deprecated in
#> dplyr 1.1.0.
#> ℹ Please use `reframe()` instead.
#> ℹ When switching from `summarise()` to `reframe()`, remember that `reframe()`
#>   always returns an ungrouped data frame and adjust accordingly.
#> `summarise()` has grouped output by 'state_code', 'school_type', 'race'. You
#> can override using the `.groups` argument.
#> `summarise()` has grouped output by 'state_code', 'school_type'. You can
#> override using the `.groups` argument.
df_pct_race
#> # A tibble: 612 × 4
#> # Groups:   state_code, school_type [102]
#>    state_code school_type race       pct_race_state
#>    <chr>      <chr>       <chr>               <dbl>
#>  1 AK         private     amerindian           5.04
#>  2 AK         private     asian                5.39
#>  3 AK         private     black                3.44
#>  4 AK         private     hispanic            22.4 
#>  5 AK         private     other                5.89
#>  6 AK         private     white               57.8 
#>  7 AK         public      amerindian          24.1 
#>  8 AK         public      asian                6.69
#>  9 AK         public      black                3.34
#> 10 AK         public      hispanic             6.17
#> # ℹ 602 more rows

df_school_all %>%
  group_by(state_code, school_type) %>%
  summarise(n_total_students = sum(total_students)) %>%
  arrange(desc(n_total_students))
#> `summarise()` has grouped output by 'state_code'. You can override using the
#> `.groups` argument.
#> # A tibble: 102 × 3
#> # Groups:   state_code [51]
#>    state_code school_type n_total_students
#>    <chr>      <chr>                  <dbl>
#>  1 CA         public               1865591
#>  2 TX         public               1390349
#>  3 NY         public                867257
#>  4 FL         public                802604
#>  5 IL         public                613273
#>  6 PA         public                536036
#>  7 OH         public                521897
#>  8 GA         public                508945
#>  9 NC         public                464627
#> 10 MI         public                441692
#> # ℹ 92 more rows
…
The average median household income of students

The maximum median household income of students

The minimum median household income of students

Lastly, sort by the number of students per state in descending order.

# Total number of students
df_school_all %>%
  group_by(state_code, school_type) %>%
  summarise(n_total_students = sum(total_students))
#> `summarise()` has grouped output by 'state_code'. You can override using the
#> `.groups` argument.
#> # A tibble: 102 × 3
#> # Groups:   state_code [51]
#>    state_code school_type n_total_students
#>    <chr>      <chr>                  <dbl>
#>  1 AK         private                 2003
#>  2 AK         public                 39861
#>  3 AL         private                39966
#>  4 AL         public                243004
#>  5 AR         private                13540
#>  6 AR         public                113878
#>  7 AZ         private                16057
#>  8 AZ         public                330197
#>  9 CA         private               169349
#> 10 CA         public               1865591
#> # ℹ 92 more rows

# The total number of visits where `med_inc` is missing
df_school_all %>%
  group_by(state_code, school_type) %>%
  filter(is.na(med_inc)) %>%
  summarise(sum(total_visits))
#> `summarise()` has grouped output by 'state_code'. You can override using the
#> `.groups` argument.
#> # A tibble: 90 × 3
#> # Groups:   state_code [49]
#>    state_code school_type `sum(total_visits)`
#>    <chr>      <chr>                     <int>
#>  1 AK         public                        0
#>  2 AL         private                       0
#>  3 AL         public                        2
#>  4 AR         private                       5
#>  5 AR         public                        4
#>  6 AZ         private                       0
#>  7 AZ         public                        0
#>  8 CA         private                       4
#>  9 CA         public                        3
#> 10 CO         private                       0
#> # ℹ 80 more rows

# The average median household income of students
df_school_all %>%
  group_by(state_code, school_type) %>%
  summarise(avg_inc = mean(med_inc, na.rm=TRUE))
#> `summarise()` has grouped output by 'state_code'. You can override using the
#> `.groups` argument.
#> # A tibble: 102 × 3
#> # Groups:   state_code [51]
#>    state_code school_type avg_inc
#>    <chr>      <chr>         <dbl>
#>  1 AK         private      83436.
#>  2 AK         public       72225.
#>  3 AL         private      54145.
#>  4 AL         public       47839.
#>  5 AR         private      58525.
#>  6 AR         public       45674.
#>  7 AZ         private      66153.
#>  8 AZ         public       55815.
#>  9 CA         private      87549.
#> 10 CA         public       70419.
#> # ℹ 92 more rows

# The maximum median household income of students
df_school_all %>%
  group_by(state_code, school_type) %>%
  summarise(max_inc = max(med_inc, na.rm=TRUE))
#> `summarise()` has grouped output by 'state_code'. You can override using the
#> `.groups` argument.
#> # A tibble: 102 × 3
#> # Groups:   state_code [51]
#>    state_code school_type max_inc
#>    <chr>      <chr>         <dbl>
#>  1 AK         private     152564 
#>  2 AK         public      152564 
#>  3 AL         private     115832.
#>  4 AL         public       98962.
#>  5 AR         private     114872 
#>  6 AR         public       93866.
#>  7 AZ         private     173174 
#>  8 AZ         public      173174 
#>  9 CA         private     250001 
#> 10 CA         public      250001 
#> # ℹ 92 more rows

# The minimum median household income of students
df_school_all %>%
  group_by(state_code, school_type) %>%
  summarise(min_inc = min(med_inc, na.rm=TRUE))
#> `summarise()` has grouped output by 'state_code'. You can override using the
#> `.groups` argument.
#> # A tibble: 102 × 3
#> # Groups:   state_code [51]
#>    state_code school_type min_inc
#>    <chr>      <chr>         <dbl>
#>  1 AK         private      53868.
#>  2 AK         public       29532.
#>  3 AL         private      23978.
#>  4 AL         public       17726.
#>  5 AR         private      29549 
#>  6 AR         public       16736 
#>  7 AZ         private      31306 
#>  8 AZ         public       22432 
#>  9 CA         private      28638 
#> 10 CA         public       17472.
#> # ℹ 92 more rows
…
